--temp-output:c:\Projects\ReSalingTickets\src\ReSalingTickets.Business\obj\Debug\netstandard1.6\
--out:c:\Projects\ReSalingTickets\src\ReSalingTickets.Business\bin\Debug\netstandard1.6\ReSalingTickets.Business.dll
--define:DEBUG
--define:TRACE
--define:NETSTANDARD1_6
--suppress-warning:CS1701
--suppress-warning:CS1702
--suppress-warning:CS1705
--optimize:False
--output-name:ReSalingTickets.Business
--file-version:1.0.0.0
--version:1.0.0.0
--informational-version:1.0.0
--target-framework:.NETStandard,Version=v1.6
--reference:C:\Users\Kirya\.nuget\packages\Autofac\4.0.0\lib\netstandard1.1\Autofac.dll
--reference:C:\Users\Kirya\.nuget\packages\Autofac.Extensions.DependencyInjection\4.0.0\lib\netstandard1.1\Autofac.Extensions.DependencyInjection.dll
--reference:C:\Users\Kirya\.nuget\packages\AutoMapper\5.2.0\lib\netstandard1.3\AutoMapper.dll
--reference:C:\Users\Kirya\.nuget\packages\Microsoft.CSharp\4.0.1\ref\netstandard1.0\Microsoft.CSharp.dll
--reference:C:\Users\Kirya\.nuget\packages\Microsoft.EntityFrameworkCore\1.0.0\lib\netstandard1.3\Microsoft.EntityFrameworkCore.dll
--reference:C:\Users\Kirya\.nuget\packages\Microsoft.EntityFrameworkCore.Relational\1.0.0\lib\netstandard1.3\Microsoft.EntityFrameworkCore.Relational.dll
--reference:C:\Users\Kirya\.nuget\packages\Microsoft.EntityFrameworkCore.SqlServer\1.0.0\lib\netstandard1.3\Microsoft.EntityFrameworkCore.SqlServer.dll
--reference:C:\Users\Kirya\.nuget\packages\Microsoft.Extensions.Caching.Abstractions\1.0.0\lib\netstandard1.0\Microsoft.Extensions.Caching.Abstractions.dll
--reference:C:\Users\Kirya\.nuget\packages\Microsoft.Extensions.Caching.Memory\1.0.0\lib\netstandard1.3\Microsoft.Extensions.Caching.Memory.dll
--reference:C:\Users\Kirya\.nuget\packages\Microsoft.Extensions.DependencyInjection\1.0.0\lib\netstandard1.1\Microsoft.Extensions.DependencyInjection.dll
--reference:C:\Users\Kirya\.nuget\packages\Microsoft.Extensions.DependencyInjection.Abstractions\1.0.0\lib\netstandard1.0\Microsoft.Extensions.DependencyInjection.Abstractions.dll
--reference:C:\Users\Kirya\.nuget\packages\Microsoft.Extensions.Logging\1.0.0\lib\netstandard1.1\Microsoft.Extensions.Logging.dll
--reference:C:\Users\Kirya\.nuget\packages\Microsoft.Extensions.Logging.Abstractions\1.0.0\lib\netstandard1.1\Microsoft.Extensions.Logging.Abstractions.dll
--reference:C:\Users\Kirya\.nuget\packages\Microsoft.Extensions.Options\1.0.0\lib\netstandard1.0\Microsoft.Extensions.Options.dll
--reference:C:\Users\Kirya\.nuget\packages\Microsoft.Extensions.Primitives\1.0.0\lib\netstandard1.0\Microsoft.Extensions.Primitives.dll
--reference:C:\Users\Kirya\.nuget\packages\Microsoft.Win32.Primitives\4.0.1\ref\netstandard1.3\Microsoft.Win32.Primitives.dll
--reference:C:\Users\Kirya\.nuget\packages\Newtonsoft.Json\9.0.1\lib\netstandard1.0\Newtonsoft.Json.dll
--reference:C:\Users\Kirya\.nuget\packages\Remotion.Linq\2.1.1\lib\netstandard1.0\Remotion.Linq.dll
--reference:C:\Users\Kirya\.nuget\packages\System.AppContext\4.1.0\ref\netstandard1.6\System.AppContext.dll
--reference:C:\Users\Kirya\.nuget\packages\System.Collections\4.0.11\ref\netstandard1.3\System.Collections.dll
--reference:C:\Users\Kirya\.nuget\packages\System.Collections.Concurrent\4.0.12\ref\netstandard1.3\System.Collections.Concurrent.dll
--reference:C:\Users\Kirya\.nuget\packages\System.Collections.Immutable\1.2.0\lib\netstandard1.0\System.Collections.Immutable.dll
--reference:C:\Users\Kirya\.nuget\packages\System.Collections.NonGeneric\4.0.1\ref\netstandard1.3\System.Collections.NonGeneric.dll
--reference:C:\Users\Kirya\.nuget\packages\System.Collections.Specialized\4.0.1\ref\netstandard1.3\System.Collections.Specialized.dll
--reference:C:\Users\Kirya\.nuget\packages\System.ComponentModel\4.0.1\ref\netstandard1.0\System.ComponentModel.dll
--reference:C:\Users\Kirya\.nuget\packages\System.ComponentModel.Annotations\4.1.0\ref\netstandard1.4\System.ComponentModel.Annotations.dll
--reference:C:\Users\Kirya\.nuget\packages\System.ComponentModel.Primitives\4.1.0\ref\netstandard1.0\System.ComponentModel.Primitives.dll
--reference:C:\Users\Kirya\.nuget\packages\System.ComponentModel.TypeConverter\4.1.0\ref\netstandard1.5\System.ComponentModel.TypeConverter.dll
--reference:C:\Users\Kirya\.nuget\packages\System.Console\4.0.0\ref\netstandard1.3\System.Console.dll
--reference:C:\Users\Kirya\.nuget\packages\System.Data.Common\4.1.0\ref\netstandard1.2\System.Data.Common.dll
--reference:C:\Users\Kirya\.nuget\packages\System.Data.SqlClient\4.1.0\ref\netstandard1.3\System.Data.SqlClient.dll
--reference:C:\Users\Kirya\.nuget\packages\System.Diagnostics.Debug\4.0.11\ref\netstandard1.3\System.Diagnostics.Debug.dll
--reference:C:\Users\Kirya\.nuget\packages\System.Diagnostics.DiagnosticSource\4.0.0\lib\netstandard1.3\System.Diagnostics.DiagnosticSource.dll
--reference:C:\Users\Kirya\.nuget\packages\System.Diagnostics.Tools\4.0.1\ref\netstandard1.0\System.Diagnostics.Tools.dll
--reference:C:\Users\Kirya\.nuget\packages\System.Diagnostics.Tracing\4.1.0\ref\netstandard1.5\System.Diagnostics.Tracing.dll
--reference:C:\Users\Kirya\.nuget\packages\System.Dynamic.Runtime\4.0.11\ref\netstandard1.3\System.Dynamic.Runtime.dll
--reference:C:\Users\Kirya\.nuget\packages\System.Globalization\4.0.11\ref\netstandard1.3\System.Globalization.dll
--reference:C:\Users\Kirya\.nuget\packages\System.Globalization.Calendars\4.0.1\ref\netstandard1.3\System.Globalization.Calendars.dll
--reference:C:\Users\Kirya\.nuget\packages\System.Interactive.Async\3.0.0\lib\netstandard1.0\System.Interactive.Async.dll
--reference:C:\Users\Kirya\.nuget\packages\System.IO\4.1.0\ref\netstandard1.5\System.IO.dll
--reference:C:\Users\Kirya\.nuget\packages\System.IO.Compression\4.1.0\ref\netstandard1.3\System.IO.Compression.dll
--reference:C:\Users\Kirya\.nuget\packages\System.IO.Compression.ZipFile\4.0.1\ref\netstandard1.3\System.IO.Compression.ZipFile.dll
--reference:C:\Users\Kirya\.nuget\packages\System.IO.FileSystem\4.0.1\ref\netstandard1.3\System.IO.FileSystem.dll
--reference:C:\Users\Kirya\.nuget\packages\System.IO.FileSystem.Primitives\4.0.1\ref\netstandard1.3\System.IO.FileSystem.Primitives.dll
--reference:C:\Users\Kirya\.nuget\packages\System.Linq\4.1.0\ref\netstandard1.6\System.Linq.dll
--reference:C:\Users\Kirya\.nuget\packages\System.Linq.Expressions\4.1.0\ref\netstandard1.6\System.Linq.Expressions.dll
--reference:C:\Users\Kirya\.nuget\packages\System.Linq.Queryable\4.0.1\ref\netstandard1.0\System.Linq.Queryable.dll
--reference:C:\Users\Kirya\.nuget\packages\System.Net.Http\4.1.0\ref\netstandard1.3\System.Net.Http.dll
--reference:C:\Users\Kirya\.nuget\packages\System.Net.Primitives\4.0.11\ref\netstandard1.3\System.Net.Primitives.dll
--reference:C:\Users\Kirya\.nuget\packages\System.Net.Sockets\4.1.0\ref\netstandard1.3\System.Net.Sockets.dll
--reference:C:\Users\Kirya\.nuget\packages\System.ObjectModel\4.0.12\ref\netstandard1.3\System.ObjectModel.dll
--reference:C:\Users\Kirya\.nuget\packages\System.Reflection\4.1.0\ref\netstandard1.5\System.Reflection.dll
--reference:C:\Users\Kirya\.nuget\packages\System.Reflection.Extensions\4.0.1\ref\netstandard1.0\System.Reflection.Extensions.dll
--reference:C:\Users\Kirya\.nuget\packages\System.Reflection.Primitives\4.0.1\ref\netstandard1.0\System.Reflection.Primitives.dll
--reference:C:\Users\Kirya\.nuget\packages\System.Reflection.TypeExtensions\4.1.0\ref\netstandard1.5\System.Reflection.TypeExtensions.dll
--reference:C:\Users\Kirya\.nuget\packages\System.Resources.ResourceManager\4.0.1\ref\netstandard1.0\System.Resources.ResourceManager.dll
--reference:C:\Users\Kirya\.nuget\packages\System.Runtime\4.1.0\ref\netstandard1.5\System.Runtime.dll
--reference:C:\Users\Kirya\.nuget\packages\System.Runtime.Extensions\4.1.0\ref\netstandard1.5\System.Runtime.Extensions.dll
--reference:C:\Users\Kirya\.nuget\packages\System.Runtime.Handles\4.0.1\ref\netstandard1.3\System.Runtime.Handles.dll
--reference:C:\Users\Kirya\.nuget\packages\System.Runtime.InteropServices\4.1.0\ref\netstandard1.5\System.Runtime.InteropServices.dll
--reference:C:\Users\Kirya\.nuget\packages\System.Runtime.InteropServices.RuntimeInformation\4.0.0\ref\netstandard1.1\System.Runtime.InteropServices.RuntimeInformation.dll
--reference:C:\Users\Kirya\.nuget\packages\System.Runtime.Numerics\4.0.1\ref\netstandard1.1\System.Runtime.Numerics.dll
--reference:C:\Users\Kirya\.nuget\packages\System.Runtime.Serialization.Primitives\4.1.1\ref\netstandard1.3\System.Runtime.Serialization.Primitives.dll
--reference:C:\Users\Kirya\.nuget\packages\System.Security.Cryptography.Algorithms\4.2.0\ref\netstandard1.6\System.Security.Cryptography.Algorithms.dll
--reference:C:\Users\Kirya\.nuget\packages\System.Security.Cryptography.Encoding\4.0.0\ref\netstandard1.3\System.Security.Cryptography.Encoding.dll
--reference:C:\Users\Kirya\.nuget\packages\System.Security.Cryptography.Primitives\4.0.0\ref\netstandard1.3\System.Security.Cryptography.Primitives.dll
--reference:C:\Users\Kirya\.nuget\packages\System.Security.Cryptography.X509Certificates\4.1.0\ref\netstandard1.4\System.Security.Cryptography.X509Certificates.dll
--reference:C:\Users\Kirya\.nuget\packages\System.Text.Encoding\4.0.11\ref\netstandard1.3\System.Text.Encoding.dll
--reference:C:\Users\Kirya\.nuget\packages\System.Text.Encoding.Extensions\4.0.11\ref\netstandard1.3\System.Text.Encoding.Extensions.dll
--reference:C:\Users\Kirya\.nuget\packages\System.Text.RegularExpressions\4.1.0\ref\netstandard1.6\System.Text.RegularExpressions.dll
--reference:C:\Users\Kirya\.nuget\packages\System.Threading\4.0.11\ref\netstandard1.3\System.Threading.dll
--reference:C:\Users\Kirya\.nuget\packages\System.Threading.Tasks\4.0.11\ref\netstandard1.3\System.Threading.Tasks.dll
--reference:C:\Users\Kirya\.nuget\packages\System.Threading.Thread\4.0.0\ref\netstandard1.3\System.Threading.Thread.dll
--reference:C:\Users\Kirya\.nuget\packages\System.Threading.Timer\4.0.1\ref\netstandard1.2\System.Threading.Timer.dll
--reference:C:\Users\Kirya\.nuget\packages\System.Xml.ReaderWriter\4.0.11\ref\netstandard1.3\System.Xml.ReaderWriter.dll
--reference:C:\Users\Kirya\.nuget\packages\System.Xml.XDocument\4.0.11\ref\netstandard1.3\System.Xml.XDocument.dll
--reference:c:\Projects\ReSalingTickets\src\ReSalingTickets.Data\bin\Debug\netstandard1.6\ReSalingTickets.Data.dll
c:\Projects\ReSalingTickets\src\ReSalingTickets.Business\Autofac\AutofacBusinessModule.cs
c:\Projects\ReSalingTickets\src\ReSalingTickets.Business\BusinessMapperSettings\BusinessMapperProfile.cs
c:\Projects\ReSalingTickets\src\ReSalingTickets.Business\Entities\CityDTO.cs
c:\Projects\ReSalingTickets\src\ReSalingTickets.Business\Entities\EventDTO.cs
c:\Projects\ReSalingTickets\src\ReSalingTickets.Business\Entities\EventShowDTO.cs
c:\Projects\ReSalingTickets\src\ReSalingTickets.Business\Entities\OrderDTO.cs
c:\Projects\ReSalingTickets\src\ReSalingTickets.Business\Entities\RoleDTO.cs
c:\Projects\ReSalingTickets\src\ReSalingTickets.Business\Entities\SearchDTO.cs
c:\Projects\ReSalingTickets\src\ReSalingTickets.Business\Entities\ShowApiEventDTO.cs
c:\Projects\ReSalingTickets\src\ReSalingTickets.Business\Entities\StatusOrderDTO.cs
c:\Projects\ReSalingTickets\src\ReSalingTickets.Business\Entities\TicketDTO.cs
c:\Projects\ReSalingTickets\src\ReSalingTickets.Business\Entities\TicketShowDTO.cs
c:\Projects\ReSalingTickets\src\ReSalingTickets.Business\Entities\UserDTO.cs
c:\Projects\ReSalingTickets\src\ReSalingTickets.Business\Entities\VenueDTO.cs
c:\Projects\ReSalingTickets\src\ReSalingTickets.Business\Properties\AssemblyInfo.cs
c:\Projects\ReSalingTickets\src\ReSalingTickets.Business\Services\RepositoryType.cs
c:\Projects\ReSalingTickets\src\ReSalingTickets.Business\Services\ServiceSettings.cs
c:\Projects\ReSalingTickets\src\ReSalingTickets.Business\Services\Implementations\BaseService.cs
c:\Projects\ReSalingTickets\src\ReSalingTickets.Business\Services\Implementations\CityService.cs
c:\Projects\ReSalingTickets\src\ReSalingTickets.Business\Services\Implementations\EventService.cs
c:\Projects\ReSalingTickets\src\ReSalingTickets.Business\Services\Implementations\OrderService.cs
c:\Projects\ReSalingTickets\src\ReSalingTickets.Business\Services\Implementations\RoleService.cs
c:\Projects\ReSalingTickets\src\ReSalingTickets.Business\Services\Implementations\StatusOrderService.cs
c:\Projects\ReSalingTickets\src\ReSalingTickets.Business\Services\Implementations\TicketService.cs
c:\Projects\ReSalingTickets\src\ReSalingTickets.Business\Services\Implementations\UserService.cs
c:\Projects\ReSalingTickets\src\ReSalingTickets.Business\Services\Implementations\VenueService.cs
c:\Projects\ReSalingTickets\src\ReSalingTickets.Business\Services\Interfaces\ICityService.cs
c:\Projects\ReSalingTickets\src\ReSalingTickets.Business\Services\Interfaces\IEventService.cs
c:\Projects\ReSalingTickets\src\ReSalingTickets.Business\Services\Interfaces\IOrderService.cs
c:\Projects\ReSalingTickets\src\ReSalingTickets.Business\Services\Interfaces\IRoleService.cs
c:\Projects\ReSalingTickets\src\ReSalingTickets.Business\Services\Interfaces\IstatusOrderService.cs
c:\Projects\ReSalingTickets\src\ReSalingTickets.Business\Services\Interfaces\ITicketService.cs
c:\Projects\ReSalingTickets\src\ReSalingTickets.Business\Services\Interfaces\IUserService.cs
c:\Projects\ReSalingTickets\src\ReSalingTickets.Business\Services\Interfaces\IVenueService.cs
